…
In our exploratory analysis, we will be investigating:

1.  What are the main churn reasons?

2.  Who are high-value customers?

3.  What are the characteristics of a customer that left, joined, and
    stayed?

``` r
telecom
```

    ## # A tibble: 7,043 × 40
    ##    `Customer ID` Gender   Age Married `Number of Dep…` City  `Zip Code` Latitude
    ##    <chr>         <chr>  <dbl> <chr>              <dbl> <chr>      <dbl>    <dbl>
    ##  1 0002-ORFBO    Female    37 Yes                    0 Fraz…      93225     34.8
    ##  2 0003-MKNFE    Male      46 No                     0 Glen…      91206     34.2
    ##  3 0004-TLHLJ    Male      50 No                     0 Cost…      92627     33.6
    ##  4 0011-IGKFF    Male      78 Yes                    0 Mart…      94553     38.0
    ##  5 0013-EXCHZ    Female    75 Yes                    0 Cama…      93010     34.2
    ##  6 0013-MHZWF    Female    23 No                     3 Midp…      95345     37.6
    ##  7 0013-SMEOE    Female    67 Yes                    0 Lomp…      93437     34.8
    ##  8 0014-BMAQU    Male      52 Yes                    0 Napa       94558     38.5
    ##  9 0015-UOCOJ    Female    68 No                     0 Simi…      93063     34.3
    ## 10 0016-QLJIS    Female    43 Yes                    1 Sher…      95681     39.0
    ## # … with 7,033 more rows, and 32 more variables: Longitude <dbl>,
    ## #   `Number of Referrals` <dbl>, `Tenure in Months` <dbl>, Offer <chr>,
    ## #   `Phone Service` <chr>, `Avg Monthly Long Distance Charges` <dbl>,
    ## #   `Multiple Lines` <chr>, `Internet Service` <chr>, `Internet Type` <chr>,
    ## #   `Avg Monthly GB Download` <dbl>, `Online Security` <chr>,
    ## #   `Online Backup` <chr>, `Device Protection Plan` <chr>,
    ## #   `Premium Tech Support` <chr>, `Streaming TV` <chr>, …
…
